<?xml version='1.0' encoding='UTF-8'?>
<invoices>
<invoice>
  <buyer>Axtronics</buyer>
  <image_name>f1.png</image_name>
  <invoice_image>build/src/test/resources/output/f1.png</invoice_image>
  <invoice_due_date>2020-10-23</invoice_due_date>
  <invoice_number>AA-C56790</invoice_number>
  <invoice_amount>305.45</invoice_amount>
  <invoice_currency>USD</invoice_currency>
  <invoice_status>NEW</invoice_status>
  <supplier>Silver Logistics</supplier>
</invoice>
</invoices>
